project 2
…
                  ifelse(Stage %in% c("stage ii", "stage iia", "stage iib"), 
                         "Stage II",
                         ifelse(Stage %in% c("stage iii", "stage iiia", 
                                             "stage iiib", "stage iiic"), 
                                "Stage III", 
                                ifelse(Stage %in% "stage iv", "Stage IV",
                                       ifelse(Stage %in% "stage x", "Stage X", 
                                              NA)))))) |> 
  mutate(Age_Grouping = 
           ifelse(Diagnosis_Age <= 39, "Young", 
                  ifelse(Diagnosis_Age >= 40 & Diagnosis_Age <= 64, "Middle Age",
                         ifelse(Diagnosis_Age > 64, "Old", NA))))
cancer_data1

# A tibble: 1,097 × 17
   Patient_Id Diagnosis_Age Estrogen_Receptor_Status Cohort Gender
   <chr>      <chr>         <chr>                    <chr>  <chr> 
 1 a2jt       63            <NA>                     BRCA   female
 2 a0w4       46            positive                 BRCA   female
 3 a0b5       40            positive                 BRCA   female
 4 a3tn       75            positive                 BRCA   female
 5 a0b3       53            negative                 BRCA   female
 6 a0cd       66            positive                 BRCA   female
 7 a0g0       56            negative                 BRCA   female
 8 a10e       64            positive                 BRCA   female
 9 a66k       72            positive                 BRCA   female
10 a14n       37            negative                 BRCA   female
# ℹ 1,087 more rows
# ℹ 12 more variables: Progesterone_Receptor_Status <chr>,
#   Histological_Type <chr>, Her2_Receptor_Status <chr>, Pathologic_M <chr>,
#   Pathologic_N <chr>, Pathologic_T <chr>, Stage <chr>, Race <chr>,
#   Radiation_Therapy <chr>, Targeted_Molecular_Therapy <chr>,
#   Stage_Condensed <chr>, Age_Grouping <chr>
…
         Radiation_Therapy = 
           factor(Radiation_Therapy, levels = c("yes", "no", NA),
                                            labels = c("Yes", "No", "NA"), exclude = NULL), 
         Age_Grouping = factor(Age_Grouping, levels = c("Young", "Middle Age",
                                                        "Old")),
         Race = factor(Race, levels = c("american indian or alaska native",
                                        "asian", "black or african american",
                                        "white"),
                       labels = c("American Indian or Alaska Native",
                                        "Asian", "Black or African American",
                                        "White"))
         ) 
cancer_data1

# A tibble: 1,097 × 17
   Patient_Id Diagnosis_Age Estrogen_Receptor_Status Cohort Gender
   <chr>      <chr>         <fct>                    <chr>  <fct> 
 1 a2jt       63            <NA>                     BRCA   Female
 2 a0w4       46            Positive                 BRCA   Female
 3 a0b5       40            Positive                 BRCA   Female
 4 a3tn       75            Positive                 BRCA   Female
 5 a0b3       53            Negative                 BRCA   Female
 6 a0cd       66            Positive                 BRCA   Female
 7 a0g0       56            Negative                 BRCA   Female
 8 a10e       64            Positive                 BRCA   Female
 9 a66k       72            Positive                 BRCA   Female
10 a14n       37            Negative                 BRCA   Female
# ℹ 1,087 more rows
# ℹ 12 more variables: Progesterone_Receptor_Status <fct>,
#   Histological_Type <chr>, Her2_Receptor_Status <fct>, Pathologic_M <chr>,
#   Pathologic_N <chr>, Pathologic_T <chr>, Stage <chr>, Race <fct>,
#   Radiation_Therapy <fct>, Targeted_Molecular_Therapy <fct>,
#   Stage_Condensed <chr>, Age_Grouping <fct>
…
treatment

cancer_data1_long1 <- cancer_data1 |>
  select(Radiation_Therapy, Targeted_Molecular_Therapy) |>
  pivot_longer(cols = everything(), 
               names_to = "Therapy", values_to = "Received")
cancer_data1_long1

# A tibble: 2,194 × 2
   Therapy                    Received
   <chr>                      <fct>   
 1 Radiation_Therapy          Yes     
 2 Targeted_Molecular_Therapy Yes     
 3 Radiation_Therapy          No      
 4 Targeted_Molecular_Therapy No      
 5 Radiation_Therapy          Yes     
 6 Targeted_Molecular_Therapy NA      
 7 Radiation_Therapy          Yes     
 8 Targeted_Molecular_Therapy NA      
 9 Radiation_Therapy          Yes     
10 Targeted_Molecular_Therapy Yes     
# ℹ 2,184 more rows
…
Receptor Status

cancer_data1_long2 <- cancer_data1 |>
  select(Estrogen_Receptor_Status, Progesterone_Receptor_Status, Her2_Receptor_Status) |>
  pivot_longer(cols = everything(), 
               names_to = "Receptor", values_to = "Status") |>
  drop_na(Status)
cancer_data1_long2

# A tibble: 3,014 × 2
   Receptor                     Status  
   <chr>                        <fct>   
 1 Estrogen_Receptor_Status     Positive
 2 Progesterone_Receptor_Status Positive
 3 Her2_Receptor_Status         Negative
 4 Estrogen_Receptor_Status     Positive
 5 Progesterone_Receptor_Status Positive
 6 Her2_Receptor_Status         Negative
 7 Estrogen_Receptor_Status     Positive
 8 Progesterone_Receptor_Status Positive
 9 Her2_Receptor_Status         Positive
10 Estrogen_Receptor_Status     Negative
# ℹ 3,004 more rows
…
1b. Breast Cancer mRNA Query using firebrowse

url2 <- "http://firebrowse.org/api/v1/Samples/mRNASeq?format=json&gene=brca2%2Cerbb2&cohort=BRCA&protocol=RSEM&page=1&page_size=3000&sort_by=cohort"
response2 <- GET(url2)
parsed2 <- fromJSON(rawToChar(response2$content))
cancer_data2 <- as_tibble(parsed2$mRNASeq) |>
  select(Cohort = cohort, "Gene_Expression" = expression_log2,
         "Gene" = gene, TCGA_Participant_Barcode = tcga_participant_barcode) |>
  mutate(Gene = ifelse(Gene == "ERBB2", "HER2", Gene)) 
  
cancer_data2

# A tibble: 2,424 × 4
   Cohort Gene_Expression Gene  TCGA_Participant_Barcode
   <chr>            <dbl> <chr> <chr>                   
 1 BRCA              7.31 BRCA2 TCGA-PL-A8LV            
 2 BRCA              5.73 BRCA2 TCGA-PE-A5DD            
 3 BRCA              6.77 BRCA2 TCGA-OL-A97C            
 4 BRCA              6.12 BRCA2 TCGA-OL-A6VR            
 5 BRCA              6.78 BRCA2 TCGA-OL-A6VQ            
 6 BRCA              5.20 BRCA2 TCGA-OL-A66P            
 7 BRCA              3.58 BRCA2 TCGA-OL-A66N            
 8 BRCA              3.32 BRCA2 TCGA-OL-A66L            
 9 BRCA              5.62 BRCA2 TCGA-OL-A66K            
10 BRCA              4.30 BRCA2 TCGA-Z7-A8R5            
# ℹ 2,414 more rows
…
cancer_data3

# A tibble: 412 × 15
   Patient_Id Diagnosis_Age Cohort Gender Primary_Therapy_Outcome    
   <chr>      <chr>         <chr>  <chr>  <chr>                      
 1 a3b8       56            BLCA   male   complete remission/response
 2 a2i1       73            BLCA   female complete remission/response
 3 a1a7       67            BLCA   female <NA>                       
 4 a1a6       53            BLCA   male   complete remission/response
 5 a3b3       74            BLCA   female complete remission/response
 6 a3b5       86            BLCA   male   progressive disease        
 7 a3b7       66            BLCA   male   progressive disease        
 8 a3b6       75            BLCA   male   complete remission/response
 9 a41q       89            BLCA   male   <NA>                       
10 a41s       87            BLCA   female complete remission/response
# ℹ 402 more rows
# ℹ 10 more variables: Additional_Treatment_Outcome <chr>,
#   Diagnosis_Subtype <chr>, Histological_Type <chr>,
#   Lymphovascular_Invasion <chr>, Pathologic_M <chr>, Pathologic_N <chr>,
#   Pathologic_T <chr>, Stage <chr>, Race <chr>, Age_Grouping <chr>
…
cancer_data3

# A tibble: 412 × 15
   Patient_Id Diagnosis_Age Cohort Gender Primary_Therapy_Outcome    
   <chr>      <chr>         <chr>  <fct>  <fct>                      
 1 a3b8       56            BLCA   Male   Complete Remission/Response
 2 a2i1       73            BLCA   Female Complete Remission/Response
 3 a1a7       67            BLCA   Female NA                         
 4 a1a6       53            BLCA   Male   Complete Remission/Response
 5 a3b3       74            BLCA   Female Complete Remission/Response
 6 a3b5       86            BLCA   Male   Progressive Disease        
 7 a3b7       66            BLCA   Male   Progressive Disease        
 8 a3b6       75            BLCA   Male   Complete Remission/Response
 9 a41q       89            BLCA   Male   NA                         
10 a41s       87            BLCA   Female Complete Remission/Response
# ℹ 402 more rows
# ℹ 10 more variables: Additional_Treatment_Outcome <fct>,
#   Diagnosis_Subtype <chr>, Histological_Type <chr>,
#   Lymphovascular_Invasion <chr>, Pathologic_M <chr>, Pathologic_N <chr>,
#   Pathologic_T <chr>, Stage <chr>, Race <fct>, Age_Grouping <fct>
…
plot of primary and additional treatment

cancer_data3_long1 <- cancer_data3 |>
  select(Primary_Therapy_Outcome, Additional_Treatment_Outcome) |>
  pivot_longer(cols = everything(), 
               names_to = "Therapy", values_to = "Outcome") |>
  mutate(Therapy = factor(Therapy, 
                levels = c("Primary_Therapy_Outcome", 
                           "Additional_Treatment_Outcome")))
cancer_data3_long1

# A tibble: 824 × 2
   Therapy                      Outcome                    
   <fct>                        <fct>                      
 1 Primary_Therapy_Outcome      Complete Remission/Response
 2 Additional_Treatment_Outcome Complete Remission/Response
 3 Primary_Therapy_Outcome      Complete Remission/Response
 4 Additional_Treatment_Outcome Complete Remission/Response
 5 Primary_Therapy_Outcome      NA                         
 6 Additional_Treatment_Outcome Stable Disease             
 7 Primary_Therapy_Outcome      Complete Remission/Response
 8 Additional_Treatment_Outcome Complete Remission/Response
 9 Primary_Therapy_Outcome      Complete Remission/Response
10 Additional_Treatment_Outcome Complete Remission/Response
# ℹ 814 more rows
…
BLCA gene expression

url4 <- "http://firebrowse.org/api/v1/Samples/mRNASeq?format=json&gene=FGFR3%2Cerbb2&cohort=BLCA&protocol=RSEM&page=1&page_size=3000&sort_by=cohort"
response4 <- GET(url4)
parsed4 <- fromJSON(rawToChar(response4$content))
cancer_data4 <- as_tibble(parsed4$mRNASeq) |>
  select(Cohort = cohort, "Gene_Expression" = expression_log2,
         "Gene" = gene, TCGA_Participant_Barcode = tcga_participant_barcode) |>
  mutate(Gene = ifelse(Gene == "ERBB2", "HER2", Gene)) 
cancer_data4

# A tibble: 854 × 4
   Cohort Gene_Expression Gene  TCGA_Participant_Barcode
   <chr>            <dbl> <chr> <chr>                   
 1 BLCA              12.8 HER2  TCGA-K4-A3WU            
 2 BLCA              13.2 HER2  TCGA-K4-A3WS            
 3 BLCA              12.3 HER2  TCGA-HQ-A5NE            
 4 BLCA              12.5 HER2  TCGA-HQ-A5ND            
 5 BLCA              15.6 HER2  TCGA-HQ-A2OF            
 6 BLCA              11.8 HER2  TCGA-ZF-AA5P            
 7 BLCA              13.0 HER2  TCGA-HQ-A2OE            
 8 BLCA              12.3 HER2  TCGA-H4-A2HQ            
 9 BLCA              11.9 HER2  TCGA-ZF-AA5N            
10 BLCA              14.0 HER2  TCGA-H4-A2HO            
# ℹ 844 more rows
…
    PatientId = patient_id,
    Cohort = cohort, 
    Gender = gender, 
    Histological_Type = histological_type,
    Primary_Therapy_Outcome = primary_therapy_outcome_success,
    Pathologic_M = pathologic_m,
    Pathologic_N = pathologic_n,
    Pathologic_T = pathologic_t,
    Stage = pathologic_stage,
    Race = race,
    Radiation_Therapy = radiation_therapy,
    Targeted_Molecular_Therapy = targeted_molecular_therapy)
cancer_data5

# A tibble: 522 × 14
   Patient_Id Diagnosis_Age PatientId Cohort Gender Histological_Type           
   <chr>      <chr>         <chr>     <chr>  <chr>  <chr>                       
 1 1679       58            1679      LUAD   female lung adenocarcinoma- not ot…
 2 1678       70            1678      LUAD   female lung adenocarcinoma- not ot…
 3 7152       65            7152      LUAD   male   lung adenocarcinoma mixed s…
 4 a4te       56            a4te      LUAD   male   lung adenocarcinoma- not ot…
 5 a4td       71            a4td      LUAD   male   lung adenocarcinoma- not ot…
 6 a4tc       77            a4tc      LUAD   male   lung adenocarcinoma- not ot…
 7 a4ta       75            a4ta      LUAD   female lung adenocarcinoma- not ot…
 8 a4tk       56            a4tk      LUAD   female lung adenocarcinoma- not ot…
 9 a4tj       62            a4tj      LUAD   female lung signet ring adenocarci…
10 7154       72            7154      LUAD   male   lung adenocarcinoma- not ot…
# ℹ 512 more rows
# ℹ 8 more variables: Primary_Therapy_Outcome <chr>, Pathologic_M <chr>,
#   Pathologic_N <chr>, Pathologic_T <chr>, Stage <chr>, Race <chr>,
#   Radiation_Therapy <chr>, Targeted_Molecular_Therapy <chr>
…
cancer_data5

# A tibble: 522 × 14
   Patient_Id Diagnosis_Age PatientId Cohort Gender Histological_Type           
   <chr>      <chr>         <chr>     <chr>  <fct>  <chr>                       
 1 1679       58            1679      LUAD   Female lung adenocarcinoma- not ot…
 2 1678       70            1678      LUAD   Female lung adenocarcinoma- not ot…
 3 7152       65            7152      LUAD   Male   lung adenocarcinoma mixed s…
 4 a4te       56            a4te      LUAD   Male   lung adenocarcinoma- not ot…
 5 a4td       71            a4td      LUAD   Male   lung adenocarcinoma- not ot…
 6 a4tc       77            a4tc      LUAD   Male   lung adenocarcinoma- not ot…
 7 a4ta       75            a4ta      LUAD   Female lung adenocarcinoma- not ot…
 8 a4tk       56            a4tk      LUAD   Female lung adenocarcinoma- not ot…
 9 a4tj       62            a4tj      LUAD   Female lung signet ring adenocarci…
10 7154       72            7154      LUAD   Male   lung adenocarcinoma- not ot…
# ℹ 512 more rows
# ℹ 8 more variables: Primary_Therapy_Outcome <fct>, Pathologic_M <chr>,
#   Pathologic_N <chr>, Pathologic_T <chr>, Stage <chr>, Race <fct>,
#   Radiation_Therapy <fct>, Targeted_Molecular_Therapy <fct>
…
treatment

cancer_data5_long5 <- cancer_data5 |>
  select(Radiation_Therapy, Targeted_Molecular_Therapy) |>
  pivot_longer(cols = everything(), 
               names_to = "Therapy", values_to = "Received")
cancer_data5_long5

# A tibble: 1,044 × 2
   Therapy                    Received
   <chr>                      <fct>   
 1 Radiation_Therapy          No      
 2 Targeted_Molecular_Therapy Yes     
 3 Radiation_Therapy          No      
 4 Targeted_Molecular_Therapy Yes     
 5 Radiation_Therapy          No      
 6 Targeted_Molecular_Therapy No      
 7 Radiation_Therapy          No      
 8 Targeted_Molecular_Therapy No      
 9 Radiation_Therapy          No      
10 Targeted_Molecular_Therapy Yes     
# ℹ 1,034 more rows
…
LUAD gene expression from Firebrowse

url6 <- "http://firebrowse.org/api/v1/Samples/mRNASeq?format=json&gene=met%2Cerbb2&cohort=LUAD&protocol=RSEM&page=1&page_size=3000&sort_by=cohort"
response6 <- GET(url6)
parsed6 <- fromJSON(rawToChar(response6$content))
cancer_data6 <- as_tibble(parsed6$mRNASeq) |>
  select(Cohort = cohort, "Gene_Expression" = expression_log2,
         "Gene" = gene, TCGA_Participant_Barcode = tcga_participant_barcode) |>
  mutate(Gene = ifelse(Gene == "ERBB2", "HER2", Gene)) 
cancer_data6

# A tibble: 1,152 × 4
   Cohort Gene_Expression Gene  TCGA_Participant_Barcode
   <chr>            <dbl> <chr> <chr>                   
 1 LUAD              11.7 HER2  TCGA-S2-AA1A            
 2 LUAD              12.6 HER2  TCGA-O1-A52J            
 3 LUAD              12.9 HER2  TCGA-NJ-A7XG            
 4 LUAD              11.4 HER2  TCGA-NJ-A55R            
 5 LUAD              12.4 HER2  TCGA-NJ-A55O            
 6 LUAD              12.4 HER2  TCGA-NJ-A55A            
 7 LUAD              13.4 HER2  TCGA-NJ-A4YQ            
 8 LUAD              12.8 HER2  TCGA-NJ-A4YP            
 9 LUAD              12.9 HER2  TCGA-NJ-A4YI            
10 LUAD              13.1 HER2  TCGA-NJ-A4YG            
# ℹ 1,142 more rows
…
Test

firebrowse_query(mRNASeq, LUAD)

# A tibble: 1,152 × 8
   cohort expression_log2 gene  geneID protocol sample_type
   <chr>            <dbl> <chr>  <int> <chr>    <chr>      
 1 LUAD              11.7 ERBB2   2064 RSEM     TP         
 2 LUAD              12.6 ERBB2   2064 RSEM     TP         
 3 LUAD              12.9 ERBB2   2064 RSEM     TP         
 4 LUAD              11.4 ERBB2   2064 RSEM     TP         
 5 LUAD              12.4 ERBB2   2064 RSEM     TP         
 6 LUAD              12.4 ERBB2   2064 RSEM     TP         
 7 LUAD              13.4 ERBB2   2064 RSEM     TP         
 8 LUAD              12.8 ERBB2   2064 RSEM     TP         
 9 LUAD              12.9 ERBB2   2064 RSEM     TP         
10 LUAD              13.1 ERBB2   2064 RSEM     TP         
# ℹ 1,142 more rows
# ℹ 2 more variables: tcga_participant_barcode <chr>, `z-score` <dbl>
